{
  "global": {},
  "env:development": {},
  "env:test": {},
  "env:production": {},
  "os:android": {},
  "os:blackberry": {},
  "os:ios": {},
  "os:mobileweb": {},
  "dependencies": {
    "com.prodz.tiflexigrid": "1.2.0",
    "com.baboonmedia.remoteimage": "1.4",
    "com.mattmcfarland.fontawesome": "1.4.1"
  }
}